{"pagination":{"page":39,"per_page":100,"total_entries":3816,"total_pages":39},"organizations":[
{"id":"5f68dab310cebf00fff7af3b","name":"Anson County Schools","website_url":"http://www.ansonschools.org","linkedin_url":"http://www.linkedin.com/company/anson-county-schools","phone":"+1 704-694-4417","founded_year":null,"primary_domain":"ansonschools.org","sic_codes":["8211"],"naics_codes":["611110"],"owned_by_organization_id":null,"organization_revenue_printed":"50.2M","organization_revenue":50215000.0,"organization_headcount_six_month_growth":-0.009708737864077669,"organization_headcount_twelve_month_growth":-0.009708737864077669,"organization_headcount_twenty_four_month_growth":-0.009708737864077669},
{"id":"54a12a0069702d8b198e6202","name":"Valley Opportunity Council","website_url":"http://www.valleyopp.com","linkedin_url":"http://www.linkedin.com/company/valley-opportunity-council","phone":"+1 413-552-1554","founded_year":1982,"primary_domain":"valleyopp.com","sic_codes":["8322"],"naics_codes":["62411","624190","813410"],"owned_by_organization_id":null,"organization_revenue_printed":"71.4M","organization_revenue":71434000.0,"organization_headcount_six_month_growth":0.0,"organization_headcount_twelve_month_growth":-0.01492537313432836,"organization_headcount_twenty_four_month_growth":-0.02941176470588235},
{"id":"659976d87052ee0001ee7943","name":"Style Encore","website_url":"http://www.style-encoremaplegrove.com","linkedin_url":"http://www.linkedin.com/company/style-encore","phone":null,"founded_year":null,"primary_domain":"style-encoremaplegrove.com","sic_codes":["5699","5932"],"naics_codes":["45951","45811"],"owned_by_organization_id":null,"organization_revenue_printed":"92.5M","organization_revenue":92500000.0,"organization_headcount_six_month_growth":-0.03846153846153846,"organization_headcount_twelve_month_growth":-0.0310077519379845,"organization_headcount_twenty_four_month_growth":-0.1071428571428571},
{"id":"54a13c7369702d2851b9f001","name":"Community Consolidated School District 146","website_url":"http://www.district146.org","linkedin_url":"http://www.linkedin.com/company/school-district-146","phone":"+1 708-614-4500","founded_year":null,"primary_domain":"district146.org","sic_codes":["8211"],"naics_codes":["611110"],"owned_by_organization_id":null,"organization_revenue_printed":"64.4M","organization_revenue":64361000.0,"organization_headcount_six_month_growth":0.0,"organization_headcount_twelve_month_growth":-0.01162790697674419,"organization_headcount_twenty_four_month_growth":0.04938271604938271},
{"id":"559207a773696418ae9c2800","name":"Ephrata Area School District","website_url":"http://www.easdpa.org","linkedin_url":"http://www.linkedin.com/company/ephrata-area-school-district","phone":null,"founded_year":null,"primary_domain":"easdpa.org","sic_codes":["8211"],"naics_codes":["611110"],"owned_by_organization_id":null,"organization_revenue_printed":"91M","organization_revenue":91014000.0,"organization_headcount_six_month_growth":0.01503759398496241,"organization_headcount_twelve_month_growth":0.06299212598425197,"organization_headcount_twenty_four_month_growth":0.0546875},
{"id":"5d0ab54ea3ae61e67ca9a575","name":"Otaku News Network","website_url":null,"linkedin_url":"http://www.linkedin.com/company/otaku-news-network","phone":null,"founded_year":null,"primary_domain":null,"naics_codes":["51929","513120"],"owned_by_organization_id":null,"organization_revenue_printed":"92.4M","organization_revenue":92400000.0,"organization_headcount_six_month_growth":0.0,"organization_headcount_twelve_month_growth":0.0,"organization_headcount_twenty_four_month_growth":0.0},
{"id":"55fa2968f3e5bb2836001a44","name":"Mecklenburg County Public Schools","website_url":"http://www.mcpsweb.org","linkedin_url":"http://www.linkedin.com/company/mecklenburg-county-public-schools","phone":"+1 434-447-7251","founded_year":null,"primary_domain":"mcpsweb.org","sic_codes":["8211"],"naics_codes":["611110"],"owned_by_organization_id":null,"organization_revenue_printed":"71.7M","organization_revenue":71695000.0,"organization_headcount_six_month_growth":0.01265822784810127,"organization_headcount_twelve_month_growth":0.0457516339869281,"organization_headcount_twenty_four_month_growth":0.0958904109589041},
{"id":"556cfaa5736964122a3f6600","name":"Qwest","website_url":"http://www.qwest.co","linkedin_url":"http://www.linkedin.com/company/qwst","phone":"+1 318-388-9000","founded_year":2014,"primary_domain":"qwest.co","naics_codes":["561599","711320"],"owned_by_organization_id":null,"organization_revenue_printed":"87.6M","organization_revenue":87600000.0,"organization_headcount_six_month_growth":0.0,"organization_headcount_twelve_month_growth":0.0,"organization_headcount_twenty_four_month_growth":0.0},
{"id":"54a128a869702dc128a00301","name":"Chambers County School System","website_url":"http://www.chambersk12.org","linkedin_url":"http://www.linkedin.com/company/chambers-county-school-system","phone":"+1 334-864-9343","founded_year":null,"primary_domain":"chambersk12.org","sic_codes":["8211"],"naics_codes":["611110"],"owned_by_organization_id":null,"organization_revenue_printed":"51.1M","organization_revenue":51100000.0,"organization_headcount_six_month_growth":0.0,"organization_headcount_twelve_month_growth":0.0,"organization_headcount_twenty_four_month_growth":-0.02816901408450704},
{"id":"5ee0c990d007600001d5e8de","name":"Hartland Consolidated Schools","website_url":"http://www.hartlandschools.us","linkedin_url":"http://www.linkedin.com/company/hartland-consolidated-schools","phone":"+1 810-626-2100","founded_year":1931,"primary_domain":"hartlandschools.us","sic_codes":["8211"],"naics_codes":["611110"],"owned_by_organization_id":null,"organization_revenue_printed":"99.4M","organization_revenue":99413000.0,"organization_headcount_six_month_growth":0.02830188679245283,"organization_headcount_twelve_month_growth":0.02830188679245283,"organization_headcount_twenty_four_month_growth":0.04807692307692308},
{"id":"55e916f0f3e5bb63a000002e","name":"EASY Wireless","website_url":"http://www.myeasywireless.com","linkedin_url":"http://www.linkedin.com/company/easy-wireless","phone":"+1 877-476-3451","founded_year":1999,"primary_domain":"myeasywireless.com","sic_codes":["4812"],"naics_codes":["517112"],"owned_by_organization_id":null,"organization_revenue_printed":"65.4M","organization_revenue":65400000.0,"organization_headcount_six_month_growth":0.0,"organization_headcount_twelve_month_growth":0.0,"organization_headcount_twenty_four_month_growth":-0.1},
{"id":"636b8425e3809a0001f1b63f","name":"Eufaula City Schools","website_url":"http://www.eufaulacityschools.org","linkedin_url":"http://www.linkedin.com/company/eufaula-city-schools","phone":"+1 334-687-1100","founded_year":1872,"primary_domain":"eufaulacityschools.org","sic_codes":["8211"],"naics_codes":["611110"],"owned_by_organization_id":null,"organization_revenue_printed":"58M","organization_revenue":58000000.0,"organization_headcount_six_month_growth":0.0,"organization_headcount_twelve_month_growth":0.05555555555555555,"organization_headcount_twenty_four_month_growth":0.09615384615384616},
{"id":"66374c9ca1ab46000101f803","name":"Bartlesville Public Schools","website_url":"http://bartlesville.k12.ok.us","linkedin_url":"http://www.linkedin.com/company/bartlesville-public-schools","phone":null,"founded_year":null,"primary_domain":"bartlesville.k12.ok.us","sic_codes":["8211"],"naics_codes":["611110"],"owned_by_organization_id":null,"organization_revenue_printed":"77.1M","organization_revenue":77094000.0,"organization_headcount_six_month_growth":0.0,"organization_headcount_twelve_month_growth":0.0,"organization_headcount_twenty_four_month_growth":-0.03731343283582089},
{"id":"6738c43f9f416f00010054c9","name":"Community Schools of Frankfort","website_url":"http://www.frankfortschools.org","linkedin_url":"http://www.linkedin.com/company/community-schools-of-frankfort","phone":"+1 765-654-5585","founded_year":null,"primary_domain":"frankfortschools.org","sic_codes":["8211"],"naics_codes":["611110"],"owned_by_organization_id":null,"organization_revenue_printed":"51.6M","organization_revenue":51589000.0,"organization_headcount_six_month_growth":0.01388888888888889,"organization_headcount_twelve_month_growth":0.0,"organization_headcount_twenty_four_month_growth":0.1230769230769231},
{"id":"54a1343169702d38bb2f1700","name":"County Line Incorporated","website_url":"http://www.countyline.com","linkedin_url":"http://www.linkedin.com/company/county-line-incorporated","phone":"+1 512-327-1742","founded_year":1975,"primary_domain":"countyline.com","sic_codes":["5812"],"naics_codes":["722511"],"owned_by_organization_id":null,"organization_revenue_printed":"50M","organization_revenue":50000000.0,"organization_headcount_six_month_growth":0.0,"organization_headcount_twelve_month_growth":-0.09090909090909091,"organization_headcount_twenty_four_month_growth":-0.1304347826086956},
{"id":"66178471d38b740007cb8cc7","name":"Omnitrition","website_url":"http://www.omnitrition.com","linkedin_url":"http://www.linkedin.com/company/omnitrition","phone":"+1 775-335-4777","founded_year":null,"primary_domain":"omnitrition.com","sic_codes":["2099"],"naics_codes":["33992","44-45"],"owned_by_organization_id":null,"organization_revenue_printed":"84.3M","organization_revenue":84300000.0,"organization_headcount_six_month_growth":0.0,"organization_headcount_twelve_month_growth":0.0,"organization_headcount_twenty_four_month_growth":0.0}
]}
